Proof of concept for health indicators - 3 Data preparation and cleaning
…
# smok_pops_region |>
#     mutate(Region = recode(ADM1_EN, 
#                            "`Asir" = "'Asir", 
#                            "Ash Sharqiyah" = "Al Hudud ash Sharqiyah", 
#                            "Al Madinah" = ))

smok_pops_region <- smok_pops_region |>
    full_join(pops, by = c("ADM1_EN" = "Region", "age", "Gender")) 

## sense check
smok_pops_region |>
    count(Gender, ADM1_EN, `18-44`) |>
    print(n = 42)

# A tibble: 69 × 4
   Gender ADM1_EN                   `18-44`     n
   <chr>  <chr>                     <chr>   <int>
 1 Female 'Asir                     18-44     967
 2 Female 'Asir                     other    2206
 3 Female Al Bahah                  18-44     535
 4 Female Al Bahah                  other    1178
 5 Female Al Hudud ash Shamaliyah   18-44     216
 6 Female Al Hudud ash Shamaliyah   other     522
 7 Female Al Jawf                   18-44     216
 8 Female Al Jawf                   other     522
 9 Female Al Madinah                <NA>       17
10 Female Al Madinah al Munawwarah  18-44     484
11 Female Al Madinah al Munawwarah  other    1133
12 Female Al Mintaqah ash Sharqiyah 18-44     648
13 Female Al Mintaqah ash Sharqiyah other    1568
14 Female Al Qasim                  18-44     699
15 Female Al Qasim                  other    1592
16 Female Al Quassim                <NA>        4
17 Female Ar Riyad                  <NA>       21
18 Female Ar Riyadh                 18-44    1241
19 Female Ar Riyadh                 other    2866
20 Female Ash Sharqiyah             <NA>       19
21 Female Ha'il                     18-44     482
22 Female Ha'il                     other    1045
23 Female Jazan                     18-44     913
24 Female Jazan                     other    2270
25 Female Jizan                     <NA>        5
26 Female Makkah                    <NA>       23
27 Female Makkah al Mukarramah      18-44     917
28 Female Makkah al Mukarramah      other    2224
29 Female Najran                    18-44     372
30 Female Najran                    other     821
31 Female Tabuk                     18-44     376
32 Female Tabuk                     other     876
33 Female `Asir                     <NA>       14
34 Male   'Asir                     18-44     967
35 Male   'Asir                     other    2293
36 Male   Al Bahah                  18-44     539
37 Male   Al Bahah                  other    1228
38 Male   Al Hudud ash Shamaliyah   18-44     216
39 Male   Al Hudud ash Shamaliyah   other     520
40 Male   Al Jawf                   18-44     216
41 Male   Al Jawf                   other     531
42 Male   Al Jawf                   <NA>        1
# ℹ 27 more rows
…
